%YAML 1.1
%TAG !u! tag:unity3d.com,2011:
--- !u!21 &2100000
Material:
  serializedVersion: 6
  m_ObjectHideFlags: 0
  m_PrefabParentObject: {fileID: 0}
  m_PrefabInternal: {fileID: 0}
  m_Name: ShowerGlass
  m_Shader: {fileID: 10750, guid: 0000000000000000f000000000000000, type: 0}
  m_ShaderKeywords: 
  m_LightmapFlags: 5
  m_CustomRenderQueue: -1
  stringTagMap: {}
  m_SavedProperties:
    serializedVersion: 2
    m_TexEnvs:
    - first:
        name: _LightMap
      second:
        m_Texture: {fileID: 2800000, guid: 609427f568d630145b792932735d962a, type: 3}
        m_Scale: {x: 1, y: 1}
        m_Offset: {x: 0, y: 0}
    - first:
        name: _MainTex
      second:
        m_Texture: {fileID: 2800000, guid: 6aefb7d2eb7fdd7478b93ace1c6e9d7c, type: 3}
        m_Scale: {x: 1, y: 1}
        m_Offset: {x: 0, y: 0}
    m_Floats:
    - first:
        name: _RimFalloff
      second: 1.5714288
    m_Colors:
    - first:
        name: _Color
      second: {r: 0.6627451, g: 0.6627451, b: 0.6627451, a: 1}
    - first:
        name: _RimColor
      second: {r: 0, g: 0, b: 0, a: 1}
