%YAML 1.1
%TAG !u! tag:unity3d.com,2011:
--- !u!21 &2100000
Material:
  serializedVersion: 6
  m_ObjectHideFlags: 0
  m_PrefabParentObject: {fileID: 0}
  m_PrefabInternal: {fileID: 0}
  m_Name: TowelRackYellow
  m_Shader: {fileID: 4800000, guid: 9f89810a5c47819499bd2163d7e15eac, type: 3}
  m_ShaderKeywords: 
  m_LightmapFlags: 5
  m_CustomRenderQueue: -1
  stringTagMap: {}
  m_SavedProperties:
    serializedVersion: 2
    m_TexEnvs:
    - first:
        name: _LightMap
      second:
        m_Texture: {fileID: 2800000, guid: bf1678c6a0462f94287812f062ec701c, type: 3}
        m_Scale: {x: 1, y: 1}
        m_Offset: {x: 0, y: 0}
    - first:
        name: _MainTex
      second:
        m_Texture: {fileID: 2800000, guid: 1886a8ddfc93e9b48830dcd2e8712464, type: 3}
        m_Scale: {x: 1, y: 1}
        m_Offset: {x: 0, y: 0}
    m_Floats:
    - first:
        name: _RimFalloff
      second: 3.142857
    m_Colors:
    - first:
        name: _Color
      second: {r: 0.8455882, g: 0.8455882, b: 0.8455882, a: 1}
    - first:
        name: _RimColor
      second: {r: 0, g: 0, b: 0, a: 1}
