%YAML 1.1
%TAG !u! tag:unity3d.com,2011:
--- !u!21 &2100000
Material:
  serializedVersion: 6
  m_ObjectHideFlags: 0
  m_PrefabParentObject: {fileID: 0}
  m_PrefabInternal: {fileID: 0}
  m_Name: Rat_White
  m_Shader: {fileID: 23, guid: 0000000000000000f000000000000000, type: 0}
  m_ShaderKeywords: 
  m_LightmapFlags: 5
  m_CustomRenderQueue: -1
  stringTagMap: {}
  m_SavedProperties:
    serializedVersion: 2
    m_TexEnvs:
    - first:
        name: _BumpMap
      second:
        m_Texture: {fileID: 2800000, guid: c13f340edfbf6fb419fe814261b4f8a9, type: 3}
        m_Scale: {x: 1, y: 1}
        m_Offset: {x: 0, y: 0}
    - first:
        name: _Cube
      second:
        m_Texture: {fileID: 8900000, guid: dc9d2f53d4f6f754d9f1b0a402051234, type: 2}
        m_Scale: {x: 1, y: 1}
        m_Offset: {x: 0, y: 0}
    - first:
        name: _MainTex
      second:
        m_Texture: {fileID: 2800000, guid: 60bf8817868f44425a5ecf5178e0fb22, type: 3}
        m_Scale: {x: 1, y: 1}
        m_Offset: {x: 0, y: 0}
    m_Floats:
    - first:
        name: _Shininess
      second: 0.01
    m_Colors:
    - first:
        name: _Color
      second: {r: 0.9264706, g: 0.9264706, b: 0.9264706, a: 1}
    - first:
        name: _ReflectColor
      second: {r: 0.99264705, g: 0.7699559, b: 0.58391005, a: 0.5019608}
    - first:
        name: _SpecColor
      second: {r: 0.71323526, g: 0.46150517, b: 0.46150517, a: 1}
